Data Viz for better 📈
…
```r
HistData::Nightingale %>%  
  mutate(When = if_else(Year == 1854 | (Year == 1855 & Month %in% c("Jan", "Feb", "Mar")), "APRIL 1854 TO MARCH 1855", "APRIL 1855 TO MARCH 1856"))  %>%  
* pivot_longer(cols = ends_with("rate"),  names_to = "Cause", values_to = "Deaths")
```
]]
.column[.content[

```
## # A tibble: 72 x 10
##    Date       Month  Year  Army Disease Wounds Other When         Cause   Deaths
##    <date>     <ord> <int> <int>   <int>  <int> <int> <chr>        <chr>    <dbl>
##  1 1854-04-01 Apr    1854  8571       1      0     5 APRIL 1854 … Diseas…    1.4
##  2 1854-04-01 Apr    1854  8571       1      0     5 APRIL 1854 … Wounds…    0  
##  3 1854-04-01 Apr    1854  8571       1      0     5 APRIL 1854 … Other.…    7  
##  4 1854-05-01 May    1854 23333      12      0     9 APRIL 1854 … Diseas…    6.2
##  5 1854-05-01 May    1854 23333      12      0     9 APRIL 1854 … Wounds…    0  
##  6 1854-05-01 May    1854 23333      12      0     9 APRIL 1854 … Other.…    4.6
##  7 1854-06-01 Jun    1854 28333      11      0     6 APRIL 1854 … Diseas…    4.7
##  8 1854-06-01 Jun    1854 28333      11      0     6 APRIL 1854 … Wounds…    0  
##  9 1854-06-01 Jun    1854 28333      11      0     6 APRIL 1854 … Other.…    2.5
## 10 1854-07-01 Jul    1854 28722     359      0    23 APRIL 1854 … Diseas…  150  
## # … with 62 more rows
```
…
